{
    "Street A": [
        100,
        101,
        102,
        103,
        104,
        144,
        150,
        166
    ],
    "Street B": [
        200,
        201,
        202,
        203,
        205,
        206
    ],
    "Street C": [
        301,
        302,
        303,
        304,
        306,
        321,
        333,
        369,
        396
    ],
    "Street D": [
        400
    ],
    "Unlim 2000": [
        501,
        502,
        503,
        505,
        507
    ],
    "Unlim 2000+": [
        602,
        606,
        607,
        608,
        609,
        610,
        611
    ]
}