{
    "Ringrajakas": [
        "608",
        "301",
        "609"
    ],
    "OMG BYE": [
        "606",
        "302",
        "304"
    ],
    "Yokomama": [
        "502",
        "501",
        "503"
    ],
    "Need for Speed": [
        "101",
        "602",
        "306"
    ],
    "": [
        "201",
        "610",
        "607",
        "321",
        "505",
        "166",
        "369",
        "103",
        "203",
        "205",
        "507",
        "396",
        "611",
        "202",
        "303",
        "102",
        "104",
        "206"
    ],
    "Need for speed": [
        "101"
    ],
    "FIEZDA": [
        "144",
        "150",
        "100"
    ],
    "Best Lap": [
        "400",
        "333",
        "200"
    ]
}