[
    { "timestamp": "1628764800", "car": "1" },
    { "timestamp": "1628851200", "car": "2" },
    { "timestamp": "1628937600", "car": "3" },
    { "timestamp": "1629024000", "car": "1" },
    { "timestamp": "1629110400", "car": "2" },
    { "timestamp": "1629196800", "car": "3" },
    { "timestamp": "1629283200", "car": "2" },
    { "timestamp": "1629369600", "car": "1" },
    { "timestamp": "1629456000", "car": "3" },
    { "timestamp": "1629542400", "car": "1" }
]
